{
  "hash": "7b40505cace95846cb85a9f162ad3953",
  "result": {
    "markdown": "::: {.cell}\n\n:::\n\n::: {.cell}\n# Venöz invazyon\n:::\n\n::: {.cell}\n\n:::\n\n::: {.cell}\n\n**Venöz invazyon**\n\n\n[https://pathologyatlas.github.io/venous-invasion/HE.html](https://pathologyatlas.github.io/venous-invasion/HE.html)\n\nMikroskopik görüntüleri inceleyin:\n\n<iframe src=\"https://pathologyatlas.github.io/venous-invasion/HE.html\" style=\"height:400px;width:100%;\" data-external=\"1\"></iframe>\n:::\n\n::: {.cell}\n\n:::\n",
    "supporting": [
      "venozinvazyon_files"
    ],
    "filters": [
      "rmarkdown/pagebreak.lua"
    ],
    "includes": {},
    "engineDependencies": {
      "knitr": [
        "{\"type\":\"list\",\"attributes\":{},\"value\":[]}"
      ]
    },
    "preserve": {},
    "postProcess": true
  }
}