{
  "hash": "c932f793d0cdf71237d36f1092aa2677",
  "result": {
    "markdown": "# Hücre Dışı Birikimler\n\n\n\n::: {.cell}\n\n:::\n\n::: {.cell}\n## Okronozis\n:::\n\n::: {.cell}\n\n:::\n\n::: {.cell}\n\n**Okronozis**\n\n\n[https://pathologyatlas.github.io/ochronosis/HE.html](https://pathologyatlas.github.io/ochronosis/HE.html)\n\nMikroskopik görüntüleri inceleyin:\n\n<iframe src=\"https://pathologyatlas.github.io/ochronosis/HE.html\" style=\"height:400px;width:100%;\" data-external=\"1\"></iframe>\n:::\n\n::: {.cell}\n\n:::\n",
    "supporting": [
      "hucredisibirikimler_files"
    ],
    "filters": [
      "rmarkdown/pagebreak.lua"
    ],
    "includes": {},
    "engineDependencies": {
      "knitr": [
        "{\"type\":\"list\",\"attributes\":{},\"value\":[]}"
      ]
    },
    "preserve": {},
    "postProcess": true
  }
}