{
  "hash": "0162c20677a7a1b24be7c3c5b7f342a7",
  "result": {
    "markdown": "# Heterotopi Ektopi\n\n## Intrapancreatic Spleen, Heterotopia\n\n-   <https://pathologyatlas.github.io/intrapancreaticspleen/HE.html>\n\n-   Mikroskopik görüntüleri inceleyin:\n\n<iframe src=\"https://pathologyatlas.github.io/intrapancreaticspleen/HE.html\" style=\"height:400px;width:100%;\" data-external=\"1\">\n\n</iframe>\n\n\n\n::: {.cell}\n\n:::\n\n::: {.cell}\n\n:::\n\n::: {.cell}\n## Ectopic adrenal tissue in paratubal adnexal region\n:::\n\n::: {.cell}\n\n:::\n\n::: {.cell}\n\n**Ectopic adrenal tissue in paratubal adnexal region**\n\n\n[https://pathologyatlas.github.io/ectopic-adrenal/HE.html](https://pathologyatlas.github.io/ectopic-adrenal/HE.html)\n\nSee Microscopy with viewer: \n\n<iframe src=\"https://pathologyatlas.github.io/ectopic-adrenal/HE.html\" style=\"height:400px;width:100%;\" data-external=\"1\"></iframe>\n:::\n",
    "supporting": [
      "heterotopi_files"
    ],
    "filters": [
      "rmarkdown/pagebreak.lua"
    ],
    "includes": {},
    "engineDependencies": {
      "knitr": [
        "{\"type\":\"list\",\"attributes\":{},\"value\":[]}"
      ]
    },
    "preserve": {},
    "postProcess": true
  }
}