{
  "hash": "3dec98178ecf31028f7985a60b4fcf1b",
  "result": {
    "markdown": "::: {.cell}\n\n```{.r .cell-code}\nprint(\"repeating content\")\n```\n\n::: {.cell-output .cell-output-stdout}\n```\n[1] \"repeating content\"\n```\n:::\n:::\n\n\n\n# Metastaz\n\n## Karaciğerde Sarkom Metastazı\n\n-   <https://pathologyatlas.github.io/metastaticsarcoma/HE.html>\n\n-   Mikroskopik görüntüleri inceleyin:\n\n<iframe src=\"https://pathologyatlas.github.io/metastaticsarcoma/HE.html\" style=\"height:400px;width:100%;\" data-external=\"1\">\n\n</iframe>\n\n\n\n\n\n::: {.cell}\n\n:::\n\n::: {.cell}\n\n## Sinsi bir lenf nodu metastazı\n:::\n\n::: {.cell}\n\n:::\n\n::: {.cell}\n\n**Sinsi bir lenf nodu metastazı HE**\n\n\n[https://pathologyatlas.github.io/insidious-lymph-node-metastasis/HE.html](https://pathologyatlas.github.io/insidious-lymph-node-metastasis/HE.html)\n\nMikroskopik görüntüleri inceleyin:\n\n<iframe src=\"https://pathologyatlas.github.io/insidious-lymph-node-metastasis/HE.html\" style=\"height:400px;width:100%;\" data-external=\"1\"></iframe>\n\n\n\n**Sinsi bir lenf nodu metastazı OSKAR panCK**\n\n\n[https://pathologyatlas.github.io/insidious-lymph-node-metastasis/OSKARCK.html](https://pathologyatlas.github.io/insidious-lymph-node-metastasis/OSKARCK.html)\n\nMikroskopik görüntüleri inceleyin:\n\n<iframe src=\"https://pathologyatlas.github.io/insidious-lymph-node-metastasis/OSKARCK.html\" style=\"height:400px;width:100%;\" data-external=\"1\"></iframe>\n:::\n\n::: {.cell}\n\n:::\n",
    "supporting": [],
    "filters": [
      "rmarkdown/pagebreak.lua"
    ],
    "includes": {},
    "engineDependencies": {},
    "preserve": {},
    "postProcess": true
  }
}