{
  "hash": "514cf79cb6ef34a3f3d78db71649ab9b",
  "result": {
    "markdown": "# Patoloji Atlası {#patoloji-atlasi .unnumbered}\n\n\n\n::: {.cell}\n\n:::\n\n::: {.cell}\n\n:::\n\n::: {.cell}\n\n[Türkçe Atlas için tıklayın](https://www.patolojiatlasi.com/)  \n\nFor social media based pathology notes [click here](https://www.patolojinotlari.com/)  \n\n\n**For Citation**\n:::\n\n\n\n|                                                                                                                                                                                                                                                                                                          |\n|----------------------------------------------------------------------------------------------------------------------------------------------------------------------------------------------------------------------------------------------------------------------------------------------------------|\n| [![](https://zenodo.org/badge/452585667.svg)](https://zenodo.org/badge/latestdoi/452585667)                                                                                                                                                                                                              |\n| [Open Science Framework DOI: 10.17605/OSF.IO/6W5K8](https://osf.io/6w5k8/)                                                                                                                                                                                                                               |\n| [![](https://img.shields.io/github/issues/patolojiatlasi/patolojiatlasi.github.io)](https://github.com/patolojiatlasi/patolojiatlasi.github.io/issues)                                                                                                                                                   |\n| [![](https://img.shields.io/github/license/patolojiatlasi/patolojiatlasi.github.io)](https://github.com/patolojiatlasi/patolojiatlasi.github.io/blob/main/LICENSE)                                                                                                                                       |\n| <a href=\"https://twitter.com/intent/tweet?text=Wow:&url=https%3A%2F%2Fwww.patolojiatlasi.com%2F%20@patolojinotlari%20@serdarbalci%20\"><img src=\"https://img.shields.io/twitter/url?label=Patoloji%20Atlas%C4%B1&amp;style=social&amp;url=https%3A%2F%2Fwww.patolojiatlasi.com%2F\" alt=\"Twitter\"/></a>    |\n| <a href=\"https://twitter.com/intent/tweet?text=Wow:&url=https%3A%2F%2Fwww.patolojinotlari.com%2F%20@patolojinotlari%20@serdarbalci%20\"><img src=\"https://img.shields.io/twitter/url?label=Patoloji%20Notlar%C4%B1&amp;style=social&amp;url=https%3A%2F%2Fwww.patolojinotlari.com%2F\" alt=\"Twitter\"/></a> |\n",
    "supporting": [
      "index_files"
    ],
    "filters": [
      "rmarkdown/pagebreak.lua"
    ],
    "includes": {},
    "engineDependencies": {
      "knitr": [
        "{\"type\":\"list\",\"attributes\":{},\"value\":[]}"
      ]
    },
    "preserve": {},
    "postProcess": true
  }
}