{
  "hash": "f3f146f3d2f2f3150b545f31440d395c",
  "result": {
    "markdown": "::: {.cell}\n\n:::\n\n::: {.cell}\n\n:::\n\n::: {.cell}\n# Parasites\n:::\n\n::: {.cell}\n\n:::\n\n::: {.cell}\n## Enterobius vermicularis\n:::\n\n::: {.cell}\n\n:::\n\n::: {.cell}\n\n**Enterobius vermicularis**\n\n\n[https://pathologyatlas.github.io/enterobius-vermicularis/HE.html](https://pathologyatlas.github.io/enterobius-vermicularis/HE.html)\n\nSee Microscopy with viewer: \n\n<iframe src=\"https://pathologyatlas.github.io/enterobius-vermicularis/HE.html\" style=\"height:400px;width:100%;\" data-external=\"1\"></iframe>\n:::\n",
    "supporting": [
      "parazit_files"
    ],
    "filters": [
      "rmarkdown/pagebreak.lua"
    ],
    "includes": {},
    "engineDependencies": {
      "knitr": [
        "{\"type\":\"list\",\"attributes\":{},\"value\":[]}"
      ]
    },
    "preserve": {},
    "postProcess": true
  }
}